…
``` r
#Ensuring DIVISION is consistent across year 
df %>%
  group_by(year, DIVISION) %>%
  summarize(n = n()) 
```

    ## `summarise()` regrouping output by 'year' (override with `.groups` argument)

    ## # A tibble: 56 x 3
    ## # Groups:   year [8]
    ##     year DIVISION            n
    ##    <dbl> <chr>           <int>
    ##  1  2013 ""                  5
    ##  2  2013 "CENTRAL"         652
    ##  3  2013 "NORTH CENTRAL"   268
    ##  4  2013 "NORTHEAST"       810
    ##  5  2013 "NORTHWEST"       465
    ##  6  2013 "SOUTH CENTRAL"   630
    ##  7  2013 "SOUTHEAST"       763
    ##  8  2013 "SOUTHWEST"       628
    ##  9  2014 "CENTRAL"         594
    ## 10  2014 "NORTH CENTRAL"   253
    ## # ... with 46 more rows
…
